work/waves.vcd
$date
	Thu May  7 09:47:12 2026
$end
$version
	Icarus Verilog
$end
$timescale
	1s
$end
$scope module tb_core $end
$var reg 1 ! clk $end
$var reg 1 " rst_n $end
$scope module u_core $end
$var wire 1 ! clk $end
$var wire 1 # pc_src $end
$var wire 1 " rst_n $end
$var wire 32 $ wb_writeback_data [31:0] $end
$var wire 32 % mem_read_data [31:0] $end
$var wire 32 & mem_alu_result_out [31:0] $end
$var wire 32 ' if_pc [31:0] $end
$var wire 32 ( if_instr [31:0] $end
$var wire 32 ) id_rs2_data [31:0] $end
$var wire 5 * id_rs2_addr [4:0] $end
$var wire 32 + id_rs1_data [31:0] $end
$var wire 5 , id_rs1_addr [4:0] $end
$var wire 5 - id_rd_addr [4:0] $end
$var wire 1 . id_mem_write $end
$var wire 1 / id_mem_to_reg $end
$var wire 1 0 id_mem_read $end
$var wire 1 1 id_jump $end
$var wire 32 2 id_imm_out [31:0] $end
$var wire 1 3 id_id_reg_write $end
$var wire 1 4 id_branch $end
$var wire 1 5 id_alu_src $end
$var wire 4 6 id_alu_ctrl [3:0] $end
$var wire 1 7 ex_zero $end
$var wire 32 8 ex_write_data [31:0] $end
$var wire 32 9 ex_branch_target [31:0] $end
$var wire 32 : ex_alu_result [31:0] $end
$var reg 4 ; ex_alu_ctrl [3:0] $end
$var reg 1 < ex_alu_src $end
$var reg 1 = ex_branch $end
$var reg 32 > ex_imm_out [31:0] $end
$var reg 1 ? ex_jump $end
$var reg 1 @ ex_mem_read $end
$var reg 1 A ex_mem_to_reg $end
$var reg 1 B ex_mem_write $end
$var reg 32 C ex_pc [31:0] $end
$var reg 5 D ex_rd_addr [4:0] $end
$var reg 1 E ex_reg_write $end
$var reg 32 F ex_rs1_data [31:0] $end
$var reg 32 G ex_rs2_data [31:0] $end
$var reg 32 H id_instr [31:0] $end
$var reg 32 I id_pc [31:0] $end
$var reg 32 J mem_alu_result [31:0] $end
$var reg 1 K mem_mem_read $end
$var reg 1 L mem_mem_to_reg $end
$var reg 1 M mem_mem_write $end
$var reg 5 N mem_rd_addr [4:0] $end
$var reg 1 O mem_reg_write $end
$var reg 32 P mem_write_data [31:0] $end
$var reg 32 Q wb_alu_result [31:0] $end
$var reg 1 R wb_mem_to_reg $end
$var reg 5 S wb_rd_addr [4:0] $end
$var reg 32 T wb_read_data [31:0] $end
$var reg 1 U wb_reg_write $end
$scope module u_ex_stage $end
$var wire 4 V alu_ctrl [3:0] $end
$var wire 1 < alu_src $end
$var wire 32 W imm_out [31:0] $end
$var wire 32 X pc [31:0] $end
$var wire 32 Y rs1_data [31:0] $end
$var wire 32 Z rs2_data [31:0] $end
$var wire 32 [ write_data [31:0] $end
$var wire 1 7 zero $end
$var wire 32 \ branch_target [31:0] $end
$var wire 32 ] alu_result [31:0] $end
$var wire 32 ^ alu_b_input [31:0] $end
$scope module u_alu $end
$var wire 32 _ a [31:0] $end
$var wire 4 ` alu_ctrl [3:0] $end
$var wire 32 a b [31:0] $end
$var wire 1 7 zero $end
$var reg 32 b result [31:0] $end
$upscope $end
$upscope $end
$scope module u_fetch $end
$var wire 32 c branch_target [31:0] $end
$var wire 1 ! clk $end
$var wire 1 # pc_src $end
$var wire 1 " rst_n $end
$var wire 32 d pc_plus_4 [31:0] $end
$var wire 32 e pc_out [31:0] $end
$var wire 32 f pc_next [31:0] $end
$var wire 32 g instr_out [31:0] $end
$scope module u_instr_mem $end
$var wire 32 h instr [31:0] $end
$var wire 32 i addr [31:0] $end
$upscope $end
$scope module u_pc_reg $end
$var wire 1 ! clk $end
$var wire 32 j next_pc [31:0] $end
$var wire 1 " rst_n $end
$var reg 32 k pc [31:0] $end
$upscope $end
$upscope $end
$scope module u_id_stage $end
$var wire 1 ! clk $end
$var wire 32 l instr [31:0] $end
$var wire 5 m wb_rd_addr [4:0] $end
$var wire 1 U wb_reg_write $end
$var wire 32 n wb_rd_data [31:0] $end
$var wire 32 o rs2_data [31:0] $end
$var wire 5 p rs2_addr_out [4:0] $end
$var wire 32 q rs1_data [31:0] $end
$var wire 5 r rs1_addr_out [4:0] $end
$var wire 1 3 reg_write $end
$var wire 5 s rd_addr_out [4:0] $end
$var wire 7 t opcode [6:0] $end
$var wire 1 . mem_write $end
$var wire 1 / mem_to_reg $end
$var wire 1 0 mem_read $end
$var wire 1 1 jump $end
$var wire 32 u imm_out [31:0] $end
$var wire 7 v funct7 [6:0] $end
$var wire 3 w funct3 [2:0] $end
$var wire 1 4 branch $end
$var wire 1 5 alu_src $end
$var wire 2 x alu_op [1:0] $end
$var wire 4 y alu_ctrl [3:0] $end
$scope module u_alu_control $end
$var wire 1 z funct7_5 $end
$var wire 3 { funct3 [2:0] $end
$var wire 2 | alu_op [1:0] $end
$var reg 4 } alu_ctrl [3:0] $end
$upscope $end
$scope module u_control_unit $end
$var wire 7 ~ opcode [6:0] $end
$var reg 2 !" alu_op [1:0] $end
$var reg 1 5 alu_src $end
$var reg 1 4 branch $end
$var reg 1 1 jump $end
$var reg 1 0 mem_read $end
$var reg 1 / mem_to_reg $end
$var reg 1 . mem_write $end
$var reg 1 3 reg_write $end
$upscope $end
$scope module u_decode $end
$var wire 32 "" instr [31:0] $end
$var wire 5 #" rs2 [4:0] $end
$var wire 5 $" rs1 [4:0] $end
$var wire 5 %" rd [4:0] $end
$var wire 7 &" opcode [6:0] $end
$var wire 7 '" funct7 [6:0] $end
$var wire 3 (" funct3 [2:0] $end
$upscope $end
$scope module u_imm_gen $end
$var wire 32 )" instr [31:0] $end
$var wire 7 *" opcode [6:0] $end
$var wire 32 +" imm_u [31:0] $end
$var wire 32 ," imm_s [31:0] $end
$var wire 32 -" imm_j [31:0] $end
$var wire 32 ." imm_i [31:0] $end
$var wire 32 /" imm_b [31:0] $end
$var reg 32 0" imm_out [31:0] $end
$upscope $end
$scope module u_regfile $end
$var wire 1 ! clk $end
$var wire 5 1" rd_addr [4:0] $end
$var wire 5 2" rs1_addr [4:0] $end
$var wire 5 3" rs2_addr [4:0] $end
$var wire 1 U we $end
$var wire 32 4" rs2_data [31:0] $end
$var wire 32 5" rs1_data [31:0] $end
$var wire 32 6" rd_data [31:0] $end
$upscope $end
$upscope $end
$scope module u_mem_stage $end
$var wire 32 7" alu_result [31:0] $end
$var wire 32 8" alu_result_out [31:0] $end
$var wire 1 ! clk $end
$var wire 1 K mem_read $end
$var wire 1 M mem_write $end
$var wire 32 9" write_data [31:0] $end
$var wire 32 :" read_data [31:0] $end
$scope module u_data_mem $end
$var wire 32 ;" addr [31:0] $end
$var wire 1 ! clk $end
$var wire 1 K mem_read $end
$var wire 1 M mem_write $end
$var wire 32 <" write_data [31:0] $end
$var wire 32 =" read_data [31:0] $end
$upscope $end
$upscope $end
$scope module u_wb_stage $end
$var wire 32 >" alu_result [31:0] $end
$var wire 1 R mem_to_reg $end
$var wire 32 ?" read_data [31:0] $end
$var wire 32 @" writeback_data [31:0] $end
$upscope $end
$upscope $end
$upscope $end
$enddefinitions $end
$comment Show the parameter values. $end
$dumpall
$end
#0
$dumpvars
bx @"
bx ?"
bx >"
bx ="
bx <"
bx ;"
bx :"
bx 9"
bx 8"
bx 7"
bx 6"
b0 5"
b0 4"
b0 3"
b0 2"
bx 1"
b0 0"
b0 /"
b0 ."
b0 -"
b0 ,"
b0 +"
b10011 *"
b10011 )"
b0 ("
b0 '"
b10011 &"
b0 %"
b0 $"
b0 #"
b10011 ""
b11 !"
b10011 ~
b0 }
b11 |
b0 {
0z
b0 y
b11 x
b0 w
b0 v
b0 u
b10011 t
b0 s
b0 r
b0 q
b0 p
b0 o
bx n
bx m
b10011 l
b0 k
b100 j
b0 i
b1100000000000010010011 h
b1100000000000010010011 g
b100 f
b0 e
b100 d
bx c
bx b
bx a
bx `
bx _
bx ^
bx ]
bx \
bx [
bx Z
bx Y
bx X
bx W
bx V
0U
bx T
bx S
xR
bx Q
bx P
0O
bx N
0M
xL
xK
bx J
b0 I
b10011 H
bx G
bx F
0E
bx D
bx C
0B
xA
x@
0?
bx >
0=
x<
bx ;
bx :
bx 9
bx 8
x7
b0 6
15
04
13
b0 2
01
00
0/
0.
b0 -
b0 ,
b0 +
b0 *
b0 )
b1100000000000010010011 (
b0 '
bx &
bx %
bx $
0#
0"
0!
$end
#5
1!
#10
0!
#15
bx )
bx o
bx 4"
b11 2
b11 u
b11 0"
17
b0 :
b0 ]
b0 b
b10011 (
b10011 g
b10011 h
b1000 f
b1000 j
b1 -
b1 s
b1 %"
b11 *
b11 p
b11 #"
b11 3"
b11 ."
b1 ,"
b100000000000 /"
b1100000000000000000000 +"
b100000000010 -"
b0 ^
b0 a
b1000 d
b100 '
b100 e
b100 i
b100 k
b1100000000000010010011 H
b1100000000000010010011 l
b1100000000000010010011 ""
b1100000000000010010011 )"
1E
1<
b0 ;
b0 V
b0 `
0A
0@
b0 D
b0 9
b0 \
b0 c
b0 >
b0 W
b0 8
b0 [
b0 G
b0 Z
b0 F
b0 Y
b0 _
b0 C
b0 X
1!
1"
#20
0!
#25
07
b11 :
b11 ]
b11 b
b0 )
b0 o
b0 4"
b0 2
b0 u
b0 0"
b0 %
b0 :"
b0 ="
b11 ^
b11 a
b0 -
b0 s
b0 %"
b0 *
b0 p
b0 #"
b0 3"
b0 ."
b0 ,"
b0 /"
b0 +"
b0 -"
b1100 f
b1100 j
0L
0K
1O
b0 N
b0 P
b0 9"
b0 <"
b0 &
b0 8"
b0 J
b0 7"
b0 ;"
b1 D
b11 9
b11 \
b11 c
b11 >
b11 W
bx 8
bx [
bx G
bx Z
b10011 H
b10011 l
b10011 ""
b10011 )"
b100 I
b1100 d
b1000 '
b1000 e
b1000 i
b1000 k
1!
#30
0!
#35
17
b0 :
b0 ]
b0 b
b10000 f
b10000 j
b0 ^
b0 a
b0 $
b0 n
b0 6"
b0 @"
b10000 d
b1100 '
b1100 e
b1100 i
b1100 k
b1000 I
b0 D
b0 >
b0 W
b0 8
b0 [
b0 G
b0 Z
b100 9
b100 \
b100 c
b100 C
b100 X
b1 N
bx P
bx 9"
bx <"
b11 &
b11 8"
b11 J
b11 7"
b11 ;"
0R
1U
b0 S
b0 m
b0 1"
b0 Q
b0 >"
b0 T
b0 ?"
1!
#40
0!
#45
b11 $
b11 n
b11 6"
b11 @"
b11111111111100001000000010010011 (
b11111111111100001000000010010011 g
b11111111111100001000000010010011 h
b10100 f
b10100 j
b1 S
b1 m
b1 1"
b11 Q
b11 >"
b0 N
b0 P
b0 9"
b0 <"
b0 &
b0 8"
b0 J
b0 7"
b0 ;"
b1000 9
b1000 \
b1000 c
b1000 C
b1000 X
b1100 I
b10100 d
b10000 '
b10000 e
b10000 i
b10000 k
1!
#50
0!
#55
b11 +
b11 q
b11 5"
bx )
bx o
bx 4"
1z
b11111111111111111111111111111111 2
b11111111111111111111111111111111 u
b11111111111111111111111111111111 0"
b10011 (
b10011 g
b10011 h
b11000 f
b11000 j
b1 -
b1 s
b1 %"
b1 ,
b1 r
b1 $"
b1 2"
b11111 *
b11111 p
b11111 #"
b11111 3"
b1111111 v
b1111111 '"
b11111111111111111111111111111111 ."
b11111111111111111111111111100001 ,"
b11111111111111111111111111100000 /"
b11111111111100001000000000000000 +"
b11111111111100001000111111111110 -"
b0 $
b0 n
b0 6"
b0 @"
b11000 d
b10100 '
b10100 e
b10100 i
b10100 k
b11111111111100001000000010010011 H
b11111111111100001000000010010011 l
b11111111111100001000000010010011 ""
b11111111111100001000000010010011 )"
b10000 I
b1100 9
b1100 \
b1100 c
b1100 C
b1100 X
b0 S
b0 m
b0 1"
b0 Q
b0 >"
1!
#60
0!
#65
b0 +
b0 q
b0 5"
b0 )
b0 o
b0 4"
0z
b0 2
b0 u
b0 0"
b11111111111111111111111111111111 ^
b11111111111111111111111111111111 a
07
b10 :
b10 ]
b10 b
b0 -
b0 s
b0 %"
b0 ,
b0 r
b0 $"
b0 2"
b0 *
b0 p
b0 #"
b0 3"
b0 v
b0 '"
b0 ."
b0 ,"
b0 /"
b0 +"
b0 -"
b11100 f
b11100 j
b1 D
b11111111111111111111111111111111 >
b11111111111111111111111111111111 W
bx 8
bx [
bx G
bx Z
b11 F
b11 Y
b11 _
b1111 9
b1111 \
b1111 c
b10000 C
b10000 X
b10011 H
b10011 l
b10011 ""
b10011 )"
b10100 I
b11100 d
b11000 '
b11000 e
b11000 i
b11000 k
1!
#70
0!
#75
17
b100000 f
b100000 j
b0 ^
b0 a
b0 :
b0 ]
b0 b
b100000 d
b11100 '
b11100 e
b11100 i
b11100 k
b11000 I
b0 D
b0 >
b0 W
b0 8
b0 [
b0 G
b0 Z
b0 F
b0 Y
b0 _
b10100 9
b10100 \
b10100 c
b10100 C
b10100 X
b1 N
bx P
bx 9"
bx <"
b10 &
b10 8"
b10 J
b10 7"
b10 ;"
1!
#80
0!
#85
b10 $
b10 n
b10 6"
b10 @"
b11111110000000001001100011100011 (
b11111110000000001001100011100011 g
b11111110000000001001100011100011 h
b100100 f
b100100 j
b1 S
b1 m
b1 1"
b10 Q
b10 >"
b0 N
b0 P
b0 9"
b0 <"
b0 &
b0 8"
b0 J
b0 7"
b0 ;"
b11000 9
b11000 \
b11000 c
b11000 C
b11000 X
b11100 I
b100100 d
b100000 '
b100000 e
b100000 i
b100000 k
1!
#90
0!
#95
14
03
05
b1 x
b1 |
b1 !"
b1000 6
b1000 y
b1000 }
b10 +
b10 q
b10 5"
1z
b11111111111111111111111111110000 2
b11111111111111111111111111110000 u
b11111111111111111111111111110000 0"
b10011 (
b10011 g
b10011 h
b101000 f
b101000 j
b1100011 t
b1100011 ~
b1100011 &"
b10001 -
b10001 s
b10001 %"
b1 w
b1 {
b1 ("
b1 ,
b1 r
b1 $"
b1 2"
b1111111 v
b1111111 '"
b1100011 *"
b11111111111111111111111111100000 ."
b11111111111111111111111111110001 ,"
b11111111111111111111111111110000 /"
b11111110000000001001000000000000 +"
b11111111111100001001011111100000 -"
b0 $
b0 n
b0 6"
b0 @"
b101000 d
b100100 '
b100100 e
b100100 i
b100100 k
b11111110000000001001100011100011 H
b11111110000000001001100011100011 l
b11111110000000001001100011100011 ""
b11111110000000001001100011100011 )"
b100000 I
b11100 9
b11100 \
b11100 c
b11100 C
b11100 X
b0 S
b0 m
b0 1"
b0 Q
b0 >"
1!
#100
0!
#105
b0 6
b0 y
b0 }
13
15
b11 x
b11 |
b11 !"
04
b0 +
b0 q
b0 5"
0z
b0 2
b0 u
b0 0"
07
b10 :
b10 ]
b10 b
b10011 t
b10011 ~
b10011 &"
b0 -
b0 s
b0 %"
b0 w
b0 {
b0 ("
b0 ,
b0 r
b0 $"
b0 2"
b0 v
b0 '"
b10011 *"
b0 ."
b0 ,"
b0 /"
b0 +"
b0 -"
b101100 f
b101100 j
0E
0<
b1000 ;
b1000 V
b1000 `
1=
b10001 D
b11111111111111111111111111110000 >
b11111111111111111111111111110000 W
b10 F
b10 Y
b10 _
b10000 9
b10000 \
b10000 c
b100000 C
b100000 X
b10011 H
b10011 l
b10011 ""
b10011 )"
b100100 I
b101100 d
b101000 '
b101000 e
b101000 i
b101000 k
1!
#110
0!
#115
b110000 f
b110000 j
17
b0 :
b0 ]
b0 b
b110000 d
b101100 '
b101100 e
b101100 i
b101100 k
b101000 I
1E
1<
b0 ;
b0 V
b0 `
0=
b0 D
b0 >
b0 W
b0 F
b0 Y
b0 _
b100100 9
b100100 \
b100100 c
b100100 C
b100100 X
0O
b10001 N
b10 &
b10 8"
b10 J
b10 7"
b10 ;"
1!
#120
0!
#125
b10 $
b10 n
b10 6"
b10 @"
bx (
bx g
bx h
b110100 f
b110100 j
0U
b10001 S
b10001 m
b10001 1"
b10 Q
b10 >"
1O
b0 N
b0 &
b0 8"
b0 J
b0 7"
b0 ;"
b101000 9
b101000 \
b101000 c
b101000 C
b101000 X
b101100 I
b110100 d
b110000 '
b110000 e
b110000 i
b110000 k
1!
#130
0!
#135
03
05
b0 x
b0 |
b0 !"
bx +
bx q
bx 5"
bx )
bx o
bx 4"
xz
b111000 f
b111000 j
bx t
bx ~
bx &"
bx -
bx s
bx %"
bx w
bx {
bx ("
bx ,
bx r
bx $"
bx 2"
bx *
bx p
bx #"
bx 3"
bx v
bx '"
bx *"
bx ."
bx ,"
bx0 /"
bx000000000000 +"
bx0 -"
b0 $
b0 n
b0 6"
b0 @"
b111000 d
b110100 '
b110100 e
b110100 i
b110100 k
bx H
bx l
bx ""
bx )"
b110000 I
b101100 9
b101100 \
b101100 c
b101100 C
b101100 X
1U
b0 S
b0 m
b0 1"
b0 Q
b0 >"
1!
#140
0!
#145
bx ^
bx a
x7
bx :
bx ]
bx b
b111100 f
b111100 j
0E
0<
bx D
bx 8
bx [
bx G
bx Z
bx F
bx Y
bx _
b110000 9
b110000 \
b110000 c
b110000 C
b110000 X
b110100 I
b111100 d
b111000 '
b111000 e
b111000 i
b111000 k
1!
#150
0!
#155
b1000000 f
b1000000 j
b1000000 d
b111100 '
b111100 e
b111100 i
b111100 k
b111000 I
b110100 9
b110100 \
b110100 c
b110100 C
b110100 X
0O
bx N
bx P
bx 9"
bx <"
bx &
bx 8"
bx J
bx 7"
bx ;"
1!
#160
0!
#165
bx $
bx n
bx 6"
bx @"
b1000100 f
b1000100 j
0U
bx S
bx m
bx 1"
bx Q
bx >"
b111000 9
b111000 \
b111000 c
b111000 C
b111000 X
b111100 I
b1000100 d
b1000000 '
b1000000 e
b1000000 i
b1000000 k
1!
#170
0!
#175
b1001000 f
b1001000 j
b1001000 d
b1000100 '
b1000100 e
b1000100 i
b1000100 k
b1000000 I
b111100 9
b111100 \
b111100 c
b111100 C
b111100 X
1!
#180
0!
#185
b1001100 f
b1001100 j
b1000000 9
b1000000 \
b1000000 c
b1000000 C
b1000000 X
b1000100 I
b1001100 d
b1001000 '
b1001000 e
b1001000 i
b1001000 k
1!
#190
0!
#195
b1010000 f
b1010000 j
b1010000 d
b1001100 '
b1001100 e
b1001100 i
b1001100 k
b1001000 I
b1000100 9
b1000100 \
b1000100 c
b1000100 C
b1000100 X
1!
#200
0!
#205
b1010100 f
b1010100 j
b1001000 9
b1001000 \
b1001000 c
b1001000 C
b1001000 X
b1001100 I
b1010100 d
b1010000 '
b1010000 e
b1010000 i
b1010000 k
1!
#210
0!
#215
b1011000 f
b1011000 j
b1011000 d
b1010100 '
b1010100 e
b1010100 i
b1010100 k
b1010000 I
b1001100 9
b1001100 \
b1001100 c
b1001100 C
b1001100 X
1!
#220
0!
#225
b1011100 f
b1011100 j
b1010000 9
b1010000 \
b1010000 c
b1010000 C
b1010000 X
b1010100 I
b1011100 d
b1011000 '
b1011000 e
b1011000 i
b1011000 k
1!
#230
0!
#235
b1100000 f
b1100000 j
b1100000 d
b1011100 '
b1011100 e
b1011100 i
b1011100 k
b1011000 I
b1010100 9
b1010100 \
b1010100 c
b1010100 C
b1010100 X
1!
#240
0!
#245
b1100100 f
b1100100 j
b1011000 9
b1011000 \
b1011000 c
b1011000 C
b1011000 X
b1011100 I
b1100100 d
b1100000 '
b1100000 e
b1100000 i
b1100000 k
1!
#250
0!
#255
b1101000 f
b1101000 j
b1101000 d
b1100100 '
b1100100 e
b1100100 i
b1100100 k
b1100000 I
b1011100 9
b1011100 \
b1011100 c
b1011100 C
b1011100 X
1!
#260
0!
#265
b1101100 f
b1101100 j
b1100000 9
b1100000 \
b1100000 c
b1100000 C
b1100000 X
b1100100 I
b1101100 d
b1101000 '
b1101000 e
b1101000 i
b1101000 k
1!
#270
0!
#275
b1110000 f
b1110000 j
b1110000 d
b1101100 '
b1101100 e
b1101100 i
b1101100 k
b1101000 I
b1100100 9
b1100100 \
b1100100 c
b1100100 C
b1100100 X
1!
#280
0!
#285
b1110100 f
b1110100 j
b1101000 9
b1101000 \
b1101000 c
b1101000 C
b1101000 X
b1101100 I
b1110100 d
b1110000 '
b1110000 e
b1110000 i
b1110000 k
1!
#290
0!
#295
b1111000 f
b1111000 j
b1111000 d
b1110100 '
b1110100 e
b1110100 i
b1110100 k
b1110000 I
b1101100 9
b1101100 \
b1101100 c
b1101100 C
b1101100 X
1!
#300
0!
#305
b1111100 f
b1111100 j
b1110000 9
b1110000 \
b1110000 c
b1110000 C
b1110000 X
b1110100 I
b1111100 d
b1111000 '
b1111000 e
b1111000 i
b1111000 k
1!
#310
0!
#315
b10000000 f
b10000000 j
b10000000 d
b1111100 '
b1111100 e
b1111100 i
b1111100 k
b1111000 I
b1110100 9
b1110100 \
b1110100 c
b1110100 C
b1110100 X
1!
#320
0!
#325
b10000100 f
b10000100 j
b1111000 9
b1111000 \
b1111000 c
b1111000 C
b1111000 X
b1111100 I
b10000100 d
b10000000 '
b10000000 e
b10000000 i
b10000000 k
1!
#330
0!
#335
b10001000 f
b10001000 j
b10001000 d
b10000100 '
b10000100 e
b10000100 i
b10000100 k
b10000000 I
b1111100 9
b1111100 \
b1111100 c
b1111100 C
b1111100 X
1!
#340
0!
#345
b10001100 f
b10001100 j
b10000000 9
b10000000 \
b10000000 c
b10000000 C
b10000000 X
b10000100 I
b10001100 d
b10001000 '
b10001000 e
b10001000 i
b10001000 k
1!
#350
0!
#355
b10010000 f
b10010000 j
b10010000 d
b10001100 '
b10001100 e
b10001100 i
b10001100 k
b10001000 I
b10000100 9
b10000100 \
b10000100 c
b10000100 C
b10000100 X
1!
#360
0!
#365
b10010100 f
b10010100 j
b10001000 9
b10001000 \
b10001000 c
b10001000 C
b10001000 X
b10001100 I
b10010100 d
b10010000 '
b10010000 e
b10010000 i
b10010000 k
1!
#370
0!
#375
b10011000 f
b10011000 j
b10011000 d
b10010100 '
b10010100 e
b10010100 i
b10010100 k
b10010000 I
b10001100 9
b10001100 \
b10001100 c
b10001100 C
b10001100 X
1!
#380
0!
#385
b10011100 f
b10011100 j
b10010000 9
b10010000 \
b10010000 c
b10010000 C
b10010000 X
b10010100 I
b10011100 d
b10011000 '
b10011000 e
b10011000 i
b10011000 k
1!
#390
0!
#395
b10100000 f
b10100000 j
b10100000 d
b10011100 '
b10011100 e
b10011100 i
b10011100 k
b10011000 I
b10010100 9
b10010100 \
b10010100 c
b10010100 C
b10010100 X
1!
#400
0!
#405
b10100100 f
b10100100 j
b10011000 9
b10011000 \
b10011000 c
b10011000 C
b10011000 X
b10011100 I
b10100100 d
b10100000 '
b10100000 e
b10100000 i
b10100000 k
1!
#410
0!
#415
b10101000 f
b10101000 j
b10101000 d
b10100100 '
b10100100 e
b10100100 i
b10100100 k
b10100000 I
b10011100 9
b10011100 \
b10011100 c
b10011100 C
b10011100 X
1!
#420
0!
#425
b10101100 f
b10101100 j
b10100000 9
b10100000 \
b10100000 c
b10100000 C
b10100000 X
b10100100 I
b10101100 d
b10101000 '
b10101000 e
b10101000 i
b10101000 k
1!
#430
0!
#435
b10110000 f
b10110000 j
b10110000 d
b10101100 '
b10101100 e
b10101100 i
b10101100 k
b10101000 I
b10100100 9
b10100100 \
b10100100 c
b10100100 C
b10100100 X
1!
#440
0!
#445
b10110100 f
b10110100 j
b10101000 9
b10101000 \
b10101000 c
b10101000 C
b10101000 X
b10101100 I
b10110100 d
b10110000 '
b10110000 e
b10110000 i
b10110000 k
1!
#450
0!
#455
b10111000 f
b10111000 j
b10111000 d
b10110100 '
b10110100 e
b10110100 i
b10110100 k
b10110000 I
b10101100 9
b10101100 \
b10101100 c
b10101100 C
b10101100 X
1!
#460
0!
#465
b10111100 f
b10111100 j
b10110000 9
b10110000 \
b10110000 c
b10110000 C
b10110000 X
b10110100 I
b10111100 d
b10111000 '
b10111000 e
b10111000 i
b10111000 k
1!
#470
0!
#475
b11000000 f
b11000000 j
b11000000 d
b10111100 '
b10111100 e
b10111100 i
b10111100 k
b10111000 I
b10110100 9
b10110100 \
b10110100 c
b10110100 C
b10110100 X
1!
#480
0!
#485
b11000100 f
b11000100 j
b10111000 9
b10111000 \
b10111000 c
b10111000 C
b10111000 X
b10111100 I
b11000100 d
b11000000 '
b11000000 e
b11000000 i
b11000000 k
1!
#490
0!
#495
b11001000 f
b11001000 j
b11001000 d
b11000100 '
b11000100 e
b11000100 i
b11000100 k
b11000000 I
b10111100 9
b10111100 \
b10111100 c
b10111100 C
b10111100 X
1!
#500
0!
#505
b11001100 f
b11001100 j
b11000000 9
b11000000 \
b11000000 c
b11000000 C
b11000000 X
b11000100 I
b11001100 d
b11001000 '
b11001000 e
b11001000 i
b11001000 k
1!
#510
0!
#515
b11010000 f
b11010000 j
b11010000 d
b11001100 '
b11001100 e
b11001100 i
b11001100 k
b11001000 I
b11000100 9
b11000100 \
b11000100 c
b11000100 C
b11000100 X
1!
